module gitea.com/4fun/weather_noticer

go 1.12

require (
	github.com/fastly/go-utils v0.0.0-20180712184237-d95a45783239 // indirect
	github.com/jehiah/go-strftime v0.0.0-20171201141054-1d33003b3869 // indirect
	github.com/lestrrat-go/envload v0.0.0-20180220234015-a3eb8ddeffcc // indirect
	github.com/lestrrat-go/file-rotatelogs v2.2.0+incompatible
	github.com/lestrrat-go/strftime v0.0.0-20180821113735-8b31f9c59b0f // indirect
	github.com/rifflock/lfshook v0.0.0-20180920164130-b9218ef580f5
	github.com/robfig/cron v1.2.0
	github.com/sirupsen/logrus v1.4.2
	github.com/spf13/viper v1.4.0
	github.com/tebeka/strftime v0.1.3 // indirect
)
